0 0.072799 0.500759 0.082825 0.390133
0 0.098954 0.786148 0.166521 0.241366
0 0.235397 0.789943 0.169137 0.333966
0 0.414124 0.766414 0.285963 0.320304
0 0.553618 0.555408 0.193548 0.469070
0 0.178291 0.459013 0.119442 0.443264
0 0.278117 0.427135 0.151700 0.525237
0 0.446818 0.346679 0.199651 0.576850
0 0.632956 0.122770 0.216216 0.198861
0 0.606800 0.407400 0.149956 0.443264
0 0.712293 0.446110 0.090671 0.432638
0 0.793374 0.242694 0.158675 0.150285
0 0.809067 0.490133 0.073235 0.384061
0 0.716652 0.772486 0.303400 0.214042
0 0.844813 0.824858 0.244115 0.197343
0 0.879686 0.455218 0.083697 0.481214
0 0.948997 0.522770 0.070619 0.467552