0 0.522459 0.507993 0.751773 0.666105
0 0.754137 0.534637 0.137116 0.317954
0 0.666076 0.480461 0.091017 0.319730
0 0.516548 0.382766 0.695035 0.376571
0 0.233452 0.574604 0.102837 0.383676
0 0.316785 0.483125 0.085106 0.317954
0 0.509456 0.665194 0.371158 0.341046