0 0.261116 0.793519 0.393200 0.241209
0 0.175676 0.471665 0.258936 0.367626
0 0.409765 0.332897 0.280732 0.502761
0 0.654752 0.398285 0.200523 0.656786
0 0.880558 0.418628 0.174368 0.645161
0 0.119878 0.196309 0.131648 0.168556
0 0.187010 0.120023 0.150828 0.172915