1 0.446809 0.410298 0.245863 0.385453
1 0.184397 0.427173 0.234043 0.376571
1 0.291962 0.203361 0.177305 0.227364
1 0.498227 0.174941 0.239953 0.248679
1 0.111702 0.197144 0.147754 0.204272
1 0.306738 0.071029 0.237589 0.133221