1 0.357454 0.768614 0.619006 0.372150
1 0.503923 0.497104 0.922406 0.947028
1 0.465126 0.416737 0.454228 0.409800
1 0.367916 0.532581 0.481255 0.363462
1 0.530950 0.333474 0.418483 0.454689
1 0.927201 0.437734 0.079337 0.729820
1 0.845684 0.472487 0.094159 0.695067
1 0.756321 0.505068 0.102005 0.702307