2 0.192995 0.653159 0.192308 0.366758
2 0.358516 0.661401 0.185440 0.465659
2 0.276786 0.504808 0.225275 0.545330
2 0.447115 0.386676 0.302198 0.603022
2 0.640797 0.554258 0.271978 0.795330
2 0.826236 0.491758 0.225275 0.634615