5 0.269481 0.658482 0.478229 0.373512
5 0.292924 0.392857 0.350076 0.181548
5 0.307771 0.230655 0.301628 0.172619
5 0.614087 0.222470 0.279748 0.186012
5 0.689104 0.366071 0.357890 0.214286
5 0.753961 0.623512 0.456349 0.398810