5 0.180035 0.489538 0.143854 0.728858
5 0.341761 0.542720 0.118570 0.622493
5 0.479076 0.585440 0.110724 0.530078
5 0.619878 0.637751 0.094159 0.411508
5 0.729294 0.656059 0.091543 0.430689
5 0.850044 0.706626 0.097646 0.388840