5 0.493304 0.514137 0.904762 0.331845
5 0.172619 0.591518 0.206845 0.165179
5 0.205357 0.476935 0.209821 0.108631
5 0.422619 0.483631 0.183036 0.095238
5 0.412946 0.603423 0.187500 0.117560
5 0.636905 0.586310 0.212798 0.133929
5 0.625000 0.475446 0.197917 0.108631
5 0.828125 0.457589 0.169643 0.102679
5 0.845982 0.587054 0.148810 0.129464