10 0.386676 0.846154 0.471154 0.307692
10 0.682692 0.613324 0.417582 0.306319
10 0.739011 0.657280 0.280220 0.248626
10 0.788462 0.407280 0.310440 0.221154
10 0.559066 0.489011 0.379121 0.255495
10 0.438187 0.378434 0.370879 0.369505
10 0.302885 0.317995 0.331044 0.396978
10 0.378434 0.153159 0.240385 0.278846
10 0.630495 0.190247 0.348901 0.215659
10 0.751374 0.388736 0.285714 0.302198