10 0.208864 0.479396 0.201099 0.384615
10 0.452010 0.229396 0.182817 0.280220
10 0.503199 0.568681 0.131628 0.214286
10 0.456581 0.822802 0.157223 0.269231
10 0.750917 0.774038 0.234006 0.358516
10 0.689216 0.430632 0.138027 0.276099
10 0.822672 0.186126 0.240405 0.287088
10 0.854665 0.530220 0.101464 0.167582
10 0.949042 0.878434 0.101916 0.223901
10 0.271936 0.869505 0.193786 0.241758
10 0.074493 0.830357 0.082268 0.265110
10 0.028789 0.418269 0.049361 0.254121
10 0.076095 0.182005 0.152190 0.089286
10 0.229888 0.104396 0.001828 0.000000
10 0.256396 0.157967 0.127972 0.173077