2 0.390190 0.634673 0.308615 0.659226
2 0.125356 0.348958 0.241150 0.531250
2 0.433971 0.216518 0.246892 0.382440
2 0.570336 0.409970 0.160767 0.575893
2 0.696652 0.314732 0.175121 0.546131
2 0.857419 0.478423 0.275601 0.608631